<svg width="240" height="194" viewBox="0 0 240 194" fill="none" xmlns="http://www.w3.org/2000/svg">
<path fill-rule="evenodd" clip-rule="evenodd" d="M217.631 194C231.712 173.9 240 149.271 240 122.663C240 116.915 239.613 111.26 238.865 105.723C236.289 105.944 232.995 106.306 229.188 106.9C219.106 108.473 206.082 111.571 193.39 117.512C180.742 123.433 169.181 131.811 160.784 143.603C152.734 154.908 146.537 170.802 146.317 194H217.631ZM22.3694 194C8.28814 173.9 0 149.271 0 122.663C0 116.945 0.382675 111.319 1.12327 105.81C3.65019 106.037 6.74196 106.385 10.2519 106.917C20.7314 108.504 34.2766 111.63 47.4826 117.63C60.6665 123.62 72.6595 132.076 81.3329 143.898C89.6184 155.191 95.9445 170.981 96.1714 194H22.3694ZM19.0454 56.3254C32.2683 58.4242 49.878 62.525 67.8029 70.6688C86.2324 79.0418 105.829 92.0769 120.945 112.407C135.61 92.2138 154.613 79.1871 172.559 70.7865C190.39 62.4401 207.901 58.3112 220.896 56.2328C199.533 22.3988 162.325 0 120 0C77.6361 0 40.3995 22.4397 19.0454 56.3254Z" fill="#FF7A00"/>
<path fill-rule="evenodd" clip-rule="evenodd" d="M217.631 194C231.712 173.9 240 149.271 240 122.663C240 116.915 239.613 111.26 238.865 105.723C236.289 105.944 232.995 106.306 229.188 106.9C219.106 108.473 206.082 111.571 193.39 117.512C180.742 123.433 169.181 131.811 160.784 143.603C152.734 154.908 146.537 170.802 146.317 194H217.631ZM22.3694 194C8.28814 173.9 0 149.271 0 122.663C0 116.945 0.382675 111.319 1.12327 105.81C3.65019 106.037 6.74196 106.385 10.2519 106.917C20.7314 108.504 34.2766 111.63 47.4826 117.63C60.6665 123.62 72.6595 132.076 81.3329 143.898C89.6184 155.191 95.9445 170.981 96.1714 194H22.3694ZM19.0454 56.3254C32.2683 58.4242 49.878 62.525 67.8029 70.6688C86.2324 79.0418 105.829 92.0769 120.945 112.407C135.61 92.2138 154.613 79.1871 172.559 70.7865C190.39 62.4401 207.901 58.3112 220.896 56.2328C199.533 22.3988 162.325 0 120 0C77.6361 0 40.3995 22.4397 19.0454 56.3254Z" fill="url(#paint0_linear)"/>
<defs>
<linearGradient id="paint0_linear" x1="-28.4766" y1="63.9404" x2="162.864" y2="257.112" gradientUnits="userSpaceOnUse">
<stop stop-color="#FFC46C"/>
<stop offset="0.645833" stop-color="#FF6D64"/>
<stop offset="1" stop-color="#FF6E30"/>
</linearGradient>
</defs>
</svg>
